﻿"GrupoId","GrupoNombre","EquipoId","EquipoNombre","EquipoBandera","JugadorId","JugadorNombre","JugadorNacionalidad","JugadorEdad","JugadorPosicion","JugadorNumeroCamiseta","JugadorFoto"
"1","Grupo A","1","Equipo 1","colombia.png","1","Juan","Colombiano","23","Delantero","10","juan.png"
"1","Grupo A","2","Equipo 2","colombia.png","2","Perez","Colombiano","22","Defensa","12","perez.png"
"1","Grupo A","3","Equipo 3","colombia.png","3","Falcao","Colombiano","25","Lateral","15","falcao.png"
"1","Grupo A","4","Equipo 4","colombia.png","4","Rafina","Colombiano","32","Arquero","62","rafina.png"
"2","Grupo B","5","Equipo 5","colombia.png","5","Rafina","Colombiano","32","Arquero","62","rafina.png"
"2","Grupo B","6","Equipo 6","colombia.png","6","Juan","Colombiano","23","Delantero","10","juan.png"
"2","Grupo B","7","Equipo 7","colombia.png","7","Perez","Colombiano","22","Defensa","12","perez.png"
"2","Grupo B","8","Equipo 8","colombia.png","8","Falcao","Colombiano","25","Lateral","15","falcao.png"
"3","Grupo C","9","Equipo 9","colombia.png","9","Rafina","Colombiano","32","Arquero","62","rafina.png"
"3","Grupo C","10","Equipo 10","colombia.png","10","Juan","Colombiano"," 29 ","Arquero","42","juan.png"
"3","Grupo C","11","Equipo 11","colombia.png","11","Perez","Colombiano"," 29 ","Delantero","45","perez.png"
"3","Grupo C","12","Equipo 12","colombia.png","12","Falcao","Colombiano"," 30 ","Defensa","47","falcao.png"
"4","Grupo D","13","Equipo 13","colombia.png","13","Rafina","Colombiano"," 30 ","Lateral","50","rafina.png"
"4","Grupo D","14","Equipo 14","colombia.png","14","Rafina","Colombiano"," 31 ","Arquero","53","rafina.png"
"4","Grupo D","15","Equipo 15","colombia.png","15","Juan","Colombiano"," 31 ","Arquero","55","juan.png"
"4","Grupo D","16","Equipo 16","colombia.png","16","Perez","Colombiano"," 32 ","Delantero","58","perez.png"
"5","Grupo E","17","Equipo 17","colombia.png","17","Falcao","Colombiano"," 32 ","Defensa","61","falcao.png"
"5","Grupo E","18","Equipo 18","colombia.png","18","Rafina","Colombiano"," 33 ","Lateral","63","rafina.png"
"5","Grupo E","19","Equipo 19","colombia.png","19","Juan","Colombiano"," 33 ","Arquero","66","juan.png"
"5","Grupo E","20","Equipo 20","colombia.png","20","Perez","Colombiano"," 34 ","Arquero","69","perez.png"
"6","Grupo F","21","Equipo 21","colombia.png","21","Falcao","Colombiano"," 34 ","Delantero","71","falcao.png"
"6","Grupo F","22","Equipo 22","colombia.png","22","Rafina","Colombiano"," 35 ","Defensa","74","rafina.png"
"6","Grupo F","23","Equipo 23","colombia.png","23","Rafina","Colombiano"," 35 ","Lateral","77","rafina.png"
"6","Grupo F","24","Equipo 24","colombia.png","24","Juan","Colombiano"," 36 ","Arquero","79","juan.png"
"7","Grupo G","25","Equipo 25","colombia.png","25","Perez","Colombiano"," 36 ","Arquero","82","perez.png"
"7","Grupo G","26","Equipo 26","colombia.png","26","Falcao","Colombiano"," 37 ","Delantero","85","falcao.png"
"7","Grupo G","27","Equipo 27","colombia.png","27","Rafina","Colombiano"," 37 ","Defensa","87","rafina.png"
"7","Grupo G","28","Equipo 28","colombia.png","28","Juan","Colombiano"," 38 ","Lateral","90","juan.png"
"8","Grupo H","29","Equipo 29","colombia.png","29","Perez","Colombiano"," 38 ","Arquero","92","perez.png"
"8","Grupo H","30","Equipo 30","colombia.png","30","Falcao","Colombiano"," 39 ","Arquero","95","falcao.png"
"8","Grupo H","31","Equipo 31","colombia.png","31","Rafina","Colombiano"," 39 ","Delantero","98","rafina.png"
"8","Grupo H","32","Equipo 32","colombia.png","32","Rafina","Colombiano"," 40 ","Defensa","100","rafina.png"
